{
  "settings-info": {
    "serialNumber": "HC2-021121",
    "hcName": "HC2-021121",
    "mac": "00:22:4d:b0:19:32",
    "softVersion": "4.180",
    "beta": false,
    "zwaveVersion": "3.67",
    "timeFormat": 24,
    "zwaveRegion": "EU",
    "serverStatus": 1539681223,
    "defaultLanguage": "en",
    "sunsetHour": "15:44",
    "sunriseHour": "07:43",
    "hotelMode": false,
    "updateStableAvailable": true,
    "temperatureUnit": "C",
    "newestStableVersion": "4.520",
    "updateBetaAvailable": false,
    "batteryLowNotification": true,
    "smsManagement": true,
    "date": "14:50 | 3.12.2018",
    "timestamp": 1543845047,
    "online": true,
    "recoveryCondition": "Ok"
  },
  "sections": [{
      "id": 4,
      "name": "Parter",
      "sortOrder": 1
    },
    {
      "id": 5,
      "name": "Piętro",
      "sortOrder": 2
    }
  ],
  "rooms": [{
      "id": 4,
      "name": "Kuchnia",
      "sectionID": 4,
      "icon": "",
      "defaultSensors": {
        "temperature": 24,
        "humidity": 0,
        "light": 0
      },
      "defaultThermostat": 0,
      "sortOrder": 1
    },
    {
      "id": 5,
      "name": "Łazienka",
      "sectionID": 4,
      "icon": "",
      "defaultSensors": {
        "temperature": 7,
        "humidity": 0,
        "light": 0
      },
      "defaultThermostat": 0,
      "sortOrder": 4
    },
    {
      "id": 6,
      "name": "Salon",
      "sectionID": 4,
      "icon": "",
      "defaultSensors": {
        "temperature": 25,
        "humidity": 0,
        "light": 28
      },
      "defaultThermostat": 0,
      "sortOrder": 2
    },
    {
      "id": 7,
      "name": "Sypialnia",
      "sectionID": 5,
      "icon": "",
      "defaultSensors": {
        "temperature": 23,
        "humidity": 0,
        "light": 0
      },
      "defaultThermostat": 0,
      "sortOrder": 3
    },
    {
      "id": 8,
      "name": "Łazienka",
      "sectionID": 5,
      "icon": "",
      "defaultSensors": {
        "temperature": 0,
        "humidity": 0,
        "light": 0
      },
      "defaultThermostat": 0,
      "sortOrder": 5
    }
  ],
  "devices": [{
      "id": 1,
      "name": "zwave",
      "roomID": 0,
      "type": "com.fibaro.zwavePrimaryController",
      "baseType": "",
      "enabled": true,
      "visible": false,
      "isPlugin": false,
      "parentId": 0,
      "remoteGatewayId": 0,
      "viewXml": false,
      "configXml": false,
      "interfaces": [
        "zwave"
      ],
      "properties": {
        "UIMessageSendTime": "0",
        "autoConfig": "0",
        "configured": true,
        "date": "a",
        "dead": "false",
        "deviceControlType": "0",
        "deviceIcon": "28",
        "disabled": "1",
        "emailNotificationID": "0",
        "emailNotificationType": "0",
        "endPoint": "0",
        "endPointId": "0",
        "liliOffCommand": "",
        "liliOnCommand": "",
        "log": "",
        "logTemp": "",
        "manufacturer": "",
        "markAsDead": "true",
        "model": "",
        "nodeID": "1",
        "nodeId": "0",
        "parameters": [],
        "parametersTemplate": "0",
        "pollingDeadDevice": "false",
        "pollingTime": "1354829138",
        "pollingTimeNext": "1354837724",
        "pollingTimeSec": 125,
        "productInfo": "",
        "pushNotificationID": "0",
        "pushNotificationType": "0",
        "remoteGatewayId": "0",
        "requestNodeNeighborStat": "0",
        "requestNodeNeighborStatTimeStemp": "",
        "requestNodeNeighborState": "",
        "requestNodeNeighborStateTimeStemp": "",
        "saveLogs": "true",
        "serialNumber": "",
        "showChildren": "1",
        "smsNotificationID": "0",
        "smsNotificationType": "0",
        "status": "STAT_IDLE",
        "sunriseHour": "07:44",
        "sunsetHour": "15:43",
        "useTemplate": "true",
        "userDescription": "",
        "value": "0",
        "zwaveBuildVersion": "3.67b",
        "zwaveCompany": "Unknown",
        "zwaveInfo": "",
        "zwaveRegion": "EU",
        "zwaveVersion": "3.67"
      },
      "actions": {
        "pollingDeadDevice": 1,
        "pollingTimeSec": 1,
        "reconfigure": 0,
        "requestNodeNeighborUpdate": 1,
        "turnOff": 0,
        "turnOn": 0
      },
      "created": 1539681224,
      "modified": 1539681224,
      "sortOrder": 1
    },
    {
      "id": 2,
      "name": "admin",
      "roomID": 0,
      "type": "HC_user",
      "baseType": "com.fibaro.voipUser",
      "enabled": true,
      "visible": true,
      "isPlugin": false,
      "parentId": 0,
      "remoteGatewayId": 0,
      "viewXml": false,
      "configXml": false,
      "interfaces": [
        "voip"
      ],
      "properties": {
        "Email": "",
        "HotelModeRoom": "0",
        "Latitude": "52.43",
        "Location": "52.4320294933;16.8449900900",
        "LocationTime": "2012-12-06 12:15",
        "LocationTimestamp": "1354792521",
        "Longitude": "16.84",
        "PreviousLatitude": "52.43",
        "PreviousLocation": "52.4320252015;16.8449947542",
        "PreviousLocationTime": "2012-12-06 12:14",
        "PreviousLocationTimestamp": "1354792461",
        "PreviousLongitude": "16.84",
        "SendNotifications": "true",
        "TrackUser": "0",
        "UserType": "superuser",
        "deviceIcon": "91",
        "firmwareUpdateLevel": "0",
        "initialWizard": "false",
        "saveLogs": "1",
        "sipDisplayName": "_",
        "sipUserID": "1",
        "sipUserPassword": "",
        "useOptionalArmPin": "false",
        "usePin": "false"
      },
      "actions": {
        "sendEmail": 2,
        "sendPush": 1,
        "setSipDisplayName": 1,
        "setSipUserID": 1,
        "setSipUserPassword": 1
      },
      "created": 1539681225,
      "modified": 1539681225,
      "sortOrder": 2
    },
    {
      "id": 3,
      "name": "YR Weather",
      "roomID": 0,
      "type": "com.fibaro.yrWeather",
      "baseType": "com.fibaro.weather",
      "enabled": true,
      "visible": true,
      "isPlugin": true,
      "parentId": 0,
      "remoteGatewayId": 0,
      "viewXml": true,
      "configXml": true,
      "interfaces": [],
      "view": [],
      "properties": {
        "ConditionCode": "3200",
        "ConditionCodeConverted": "0",
        "Humidity": "0.00",
        "Pressure": "0.00",
        "Temperature": "0.00",
        "WeatherCondition": "unavailable",
        "Wind": "0.00",
        "dead": "false",
        "deviceControlType": "0",
        "deviceIcon": "28",
        "emailNotificationID": "0",
        "emailNotificationType": "0",
        "hidden": "false",
        "liliOffCommand": "",
        "liliOnCommand": "",
        "log": "",
        "logTemp": "",
        "manufacturer": "",
        "model": "",
        "pushNotificationID": "0",
        "pushNotificationType": "0",
        "remoteGatewayId": "0",
        "saveLogs": "true",
        "smsNotificationID": "0",
        "smsNotificationType": "0",
        "ui.Current_Weather_Label.caption": "Temp.: 0°C\n\nHumidity: 0%\n\nWind: 0km/h",
        "ui.config.hidden.caption": "To urządzenie nie jest pokazywane w systemie.",
        "ui.config.hidden.enabled": true,
        "ui.config.section1.caption": "Konfiguracja",
        "ui.config.section1.enabled": true,
        "userDescription": ""
      },
      "actions": {},
      "created": 1539681225,
      "modified": 1539681225,
      "sortOrder": 3
    },
    {
      "id": 4,
      "name": "Mock Device",
      "roomID": 0,
      "type": "com.fibaro.mockDevice",
      "baseType": "com.fibaro.device",
      "enabled": true,
      "visible": true,
      "isPlugin": true,
      "parentId": 0,
      "remoteGatewayId": 0,
      "viewXml": true,
      "configXml": true,
      "interfaces": [],
      "view": [],
      "properties": {
        "dead": "false",
        "deviceControlType": "0",
        "deviceIcon": "28",
        "emailNotificationID": "0",
        "emailNotificationType": "0",
        "lastDeviceNumber": "0",
        "liliOffCommand": "",
        "liliOnCommand": "",
        "log": "",
        "logTemp": "",
        "manufacturer": "",
        "model": "",
        "pushNotificationID": "0",
        "pushNotificationType": "0",
        "remoteGatewayId": "0",
        "saveLogs": "true",
        "selectedDeviceId": "",
        "selectedInterface": "",
        "smsNotificationID": "0",
        "smsNotificationType": "0",
        "ui.addDevice.caption": "Add device",
        "ui.config.interfaces.caption": "Add interface to device",
        "ui.config.interfaces.enabled": true,
        "ui.config.selectedDeviceId.caption": "Select deviceId",
        "ui.config.selectedDeviceId.enabled": true,
        "ui.config.selectedInterface.caption": "Select interface",
        "ui.config.selectedInterface.enabled": true,
        "ui.deviceSelection.caption": "Select Mock Device",
        "ui.deviceSelection.value": "com.fibaro.binarySwitch",
        "ui.selectLabel.caption": "Select Mock Device",
        "userDescription": ""
      },
      "actions": {},
      "created": 1539681225,
      "modified": 1539681225,
      "sortOrder": 4
    },
    {
      "id": 5,
      "name": "binarySwitch_0",
      "roomID": 6,
      "type": "com.fibaro.binarySwitch",
      "baseType": "com.fibaro.actor",
      "enabled": true,
      "visible": true,
      "isPlugin": true,
      "parentId": 4,
      "remoteGatewayId": 0,
      "viewXml": false,
      "configXml": false,
      "interfaces": [
        "deviceGrouping",
        "light",
        "zwave_mock"
      ],
      "properties": {
        "configured": true,
        "dead": "false",
        "deviceControlType": "2",
        "deviceGroup": "[]",
        "deviceGroupMaster": "0",
        "deviceIcon": "2",
        "emailNotificationID": "0",
        "emailNotificationType": "0",
        "endPointId": "0",
        "isLight": "true",
        "liliOffCommand": "",
        "liliOnCommand": "",
        "linkedDevices": "[5]",
        "log": "",
        "logTemp": "",
        "manufacturer": "",
        "markAsDead": "true",
        "model": "",
        "nodeId": "0",
        "parameters": [],
        "parametersTemplate": "0",
        "pollingTimeSec": 0,
        "productInfo": "",
        "pushNotificationID": "0",
        "pushNotificationType": "0",
        "remoteGatewayId": "0",
        "saveLogs": "true",
        "serialNumber": "",
        "smsNotificationID": "0",
        "smsNotificationType": "0",
        "useTemplate": "true",
        "userDescription": "",
        "value": "false",
        "zwaveVersion": ""
      },
      "actions": {
        "reconfigure": 0,
        "turnOff": 0,
        "turnOn": 0
      },
      "created": 1539681225,
      "modified": 1539681225,
      "sortOrder": 13
    },
    {
      "id": 6,
      "name": "multilevelSwitch_1",
      "roomID": 4,
      "type": "com.fibaro.multilevelSwitch",
      "baseType": "com.fibaro.binarySwitch",
      "enabled": true,
      "visible": true,
      "isPlugin": true,
      "parentId": 4,
      "remoteGatewayId": 0,
      "viewXml": false,
      "configXml": false,
      "interfaces": [
        "deviceGrouping",
        "levelChange",
        "light",
        "zwave_mock"
      ],
      "properties": {
        "configured": true,
        "dead": "false",
        "deviceControlType": "23",
        "deviceGroup": "[]",
        "deviceGroupMaster": "0",
        "deviceIcon": "15",
        "emailNotificationID": "0",
        "emailNotificationType": "0",
        "endPointId": "0",
        "isLight": "true",
        "liliOffCommand": "",
        "liliOnCommand": "",
        "linkedDevices": "[6]",
        "log": "",
        "logTemp": "",
        "manufacturer": "",
        "markAsDead": "true",
        "model": "",
        "nodeId": "0",
        "parameters": [],
        "parametersTemplate": "0",
        "pollingTimeSec": 0,
        "productInfo": "",
        "pushNotificationID": "0",
        "pushNotificationType": "0",
        "remoteGatewayId": "0",
        "saveLogs": "true",
        "serialNumber": "",
        "smsNotificationID": "0",
        "smsNotificationType": "0",
        "useTemplate": "true",
        "userDescription": "",
        "value": "0",
        "zwaveVersion": ""
      },
      "actions": {
        "reconfigure": 0,
        "setValue": 1,
        "startLevelDecrease": 0,
        "startLevelIncrease": 0,
        "stopLevelChange": 0,
        "turnOff": 0,
        "turnOn": 0
      },
      "created": 1539681225,
      "modified": 1539681225,
      "sortOrder": 12
    },
    {
      "id": 7,
      "name": "temperatureSensor_2",
      "roomID": 5,
      "type": "com.fibaro.temperatureSensor",
      "baseType": "com.fibaro.multilevelSensor",
      "enabled": true,
      "visible": true,
      "isPlugin": true,
      "parentId": 4,
      "remoteGatewayId": 0,
      "viewXml": false,
      "configXml": false,
      "interfaces": [
        "zwave_mock"
      ],
      "properties": {
        "configured": true,
        "dead": "false",
        "deviceControlType": "0",
        "deviceIcon": "30",
        "emailNotificationID": "0",
        "emailNotificationType": "0",
        "endPointId": "0",
        "liliOffCommand": "",
        "liliOnCommand": "",
        "linkedDevices": "[7]",
        "log": "",
        "logTemp": "",
        "manufacturer": "",
        "markAsDead": "true",
        "model": "",
        "nodeId": "0",
        "offset": "0.00",
        "parameters": [],
        "parametersTemplate": "0",
        "pollingTimeSec": 0,
        "productInfo": "",
        "pushNotificationID": "0",
        "pushNotificationType": "0",
        "remoteGatewayId": "0",
        "saveLogs": "true",
        "serialNumber": "",
        "showFireAlarm": "true",
        "showFreezeAlarm": "false",
        "smsNotificationID": "0",
        "smsNotificationType": "0",
        "unit": "C",
        "useTemplate": "true",
        "userDescription": "",
        "value": "22.98",
        "zwaveVersion": ""
      },
      "actions": {
        "reconfigure": 0
      },
      "created": 1539681225,
      "modified": 1539681225,
      "sortOrder": 23
    },
    {
      "id": 8,
      "name": "FGWP102_3",
      "roomID": 7,
      "type": "com.fibaro.FGWP102",
      "baseType": "com.fibaro.FGWP",
      "enabled": true,
      "visible": true,
      "isPlugin": true,
      "parentId": 4,
      "remoteGatewayId": 0,
      "viewXml": false,
      "configXml": false,
      "interfaces": [
        "deviceGrouping",
        "energy",
        "light",
        "power",
        "zwave_mock"
      ],
      "properties": {
        "color": "",
        "configured": true,
        "dead": "false",
        "deviceControlType": "2",
        "deviceGroup": "[]",
        "deviceGroupMaster": "0",
        "deviceIcon": "125",
        "emailNotificationID": "0",
        "emailNotificationType": "0",
        "endPointId": "0",
        "energy": "2141.23",
        "icon": "{\"path\":\"fibaro/icons/com.fibaro.FGWP_EU/plug0.png\",\"source\":\"HC\"}",
        "isLight": "true",
        "liliOffCommand": "",
        "liliOnCommand": "",
        "linkedDevices": "[8]",
        "log": "",
        "logTemp": "",
        "manufacturer": "",
        "markAsDead": "true",
        "model": "",
        "nodeId": "0",
        "parameters": [],
        "parametersTemplate": "0",
        "pollingTimeSec": 0,
        "power": "0.00",
        "productInfo": "",
        "pushNotificationID": "0",
        "pushNotificationType": "0",
        "remoteGatewayId": "0",
        "saveLogs": "true",
        "serialNumber": "",
        "showEnergy": "true",
        "smsNotificationID": "0",
        "smsNotificationType": "0",
        "useTemplate": "true",
        "userDescription": "",
        "value": "false",
        "zwaveVersion": ""
      },
      "actions": {
        "reconfigure": 0,
        "reset": 0,
        "turnOff": 0,
        "turnOn": 0
      },
      "created": 1539681225,
      "modified": 1539681225,
      "sortOrder": 18
    },
    {
      "id": 9,
      "name": "rollerShutter_4",
      "roomID": 6,
      "type": "com.fibaro.rollerShutter",
      "baseType": "com.fibaro.actor",
      "enabled": true,
      "visible": true,
      "isPlugin": true,
      "parentId": 4,
      "remoteGatewayId": 0,
      "viewXml": false,
      "configXml": false,
      "interfaces": [
        "levelChange",
        "zwave_mock"
      ],
      "properties": {
        "configured": true,
        "dead": "false",
        "deviceControlType": "0",
        "deviceIcon": "20",
        "emailNotificationID": "0",
        "emailNotificationType": "0",
        "endPointId": "0",
        "liliOffCommand": "",
        "liliOnCommand": "",
        "linkedDevices": "[9]",
        "log": "",
        "logTemp": "",
        "manufacturer": "",
        "markAsDead": "true",
        "model": "",
        "nodeId": "0",
        "parameters": [],
        "parametersTemplate": "0",
        "pollingTimeSec": 0,
        "productInfo": "",
        "pushNotificationID": "0",
        "pushNotificationType": "0",
        "remoteGatewayId": "0",
        "saveLogs": "true",
        "serialNumber": "",
        "smsNotificationID": "0",
        "smsNotificationType": "0",
        "useTemplate": "true",
        "userDescription": "",
        "value": "0",
        "zwaveVersion": ""
      },
      "actions": {
        "close": 0,
        "open": 0,
        "reconfigure": 0,
        "setValue": 1,
        "startLevelDecrease": 0,
        "startLevelIncrease": 0,
        "stop": 0,
        "stopLevelChange": 0
      },
      "created": 1539681225,
      "modified": 1539681225,
      "sortOrder": 14
    },
    {
      "id": 10,
      "name": "rollerShutter_5",
      "roomID": 4,
      "type": "com.fibaro.rollerShutter",
      "baseType": "com.fibaro.actor",
      "enabled": true,
      "visible": true,
      "isPlugin": true,
      "parentId": 4,
      "remoteGatewayId": 0,
      "viewXml": false,
      "configXml": false,
      "interfaces": [
        "levelChange",
        "zwave_mock"
      ],
      "properties": {
        "configured": true,
        "dead": "false",
        "deviceControlType": "0",
        "deviceIcon": "20",
        "emailNotificationID": "0",
        "emailNotificationType": "0",
        "endPointId": "0",
        "liliOffCommand": "",
        "liliOnCommand": "",
        "linkedDevices": "[10]",
        "log": "",
        "logTemp": "",
        "manufacturer": "",
        "markAsDead": "true",
        "model": "",
        "nodeId": "0",
        "parameters": [],
        "parametersTemplate": "0",
        "pollingTimeSec": 0,
        "productInfo": "",
        "pushNotificationID": "0",
        "pushNotificationType": "0",
        "remoteGatewayId": "0",
        "saveLogs": "true",
        "serialNumber": "",
        "smsNotificationID": "0",
        "smsNotificationType": "0",
        "useTemplate": "true",
        "userDescription": "",
        "value": "0",
        "zwaveVersion": ""
      },
      "actions": {
        "close": 0,
        "open": 0,
        "reconfigure": 0,
        "setValue": 1,
        "startLevelDecrease": 0,
        "startLevelIncrease": 0,
        "stop": 0,
        "stopLevelChange": 0
      },
      "created": 1539681225,
      "modified": 1539681225,
      "sortOrder": 25
    },
    {
      "id": 11,
      "name": "binarySensor_6",
      "roomID": 8,
      "type": "com.fibaro.binarySensor",
      "baseType": "com.fibaro.sensor",
      "enabled": true,
      "visible": true,
      "isPlugin": true,
      "parentId": 4,
      "remoteGatewayId": 0,
      "viewXml": false,
      "configXml": false,
      "interfaces": [
        "fibaroAlarm",
        "fibaroAlarmArm",
        "fibaroBreach",
        "zwave_mock"
      ],
      "properties": {
        "alarmDelay": "0",
        "alarmExclude": "false",
        "alarmTimeTimestamp": "0",
        "armConditions": "{\"auto\":false,\"devices\":[{\"id\":11,\"propertyName\":\"value\",\"propertyValue\":\"0\"}],\"time\":0}",
        "armConfig": "0",
        "armDelay": "0",
        "armError": "{}",
        "armTimeTimestamp": "0",
        "armed": "false",
        "configured": true,
        "dead": "false",
        "deviceControlType": "0",
        "deviceIcon": "21",
        "emailNotificationID": "0",
        "emailNotificationType": "0",
        "endPointId": "0",
        "fibaroAlarm": "false",
        "lastBreached": "0",
        "liliOffCommand": "",
        "liliOnCommand": "",
        "linkedDevices": "[11]",
        "log": "",
        "logTemp": "",
        "manufacturer": "",
        "markAsDead": "true",
        "model": "",
        "nodeId": "0",
        "parameters": [],
        "parametersTemplate": "0",
        "pollingTimeSec": 0,
        "productInfo": "",
        "pushNotificationID": "0",
        "pushNotificationType": "0",
        "remoteGatewayId": "0",
        "saveLogs": "true",
        "serialNumber": "",
        "smsNotificationID": "0",
        "smsNotificationType": "0",
        "useTemplate": "true",
        "userDescription": "",
        "value": "false",
        "zwaveVersion": ""
      },
      "actions": {
        "forceArm": 0,
        "meetArmConditions": 0,
        "reconfigure": 0,
        "setArmed": 1
      },
      "created": 1539681225,
      "modified": 1539681225,
      "sortOrder": 24
    },
    {
      "id": 12,
      "name": "binarySensor_7",
      "roomID": 4,
      "type": "com.fibaro.binarySensor",
      "baseType": "com.fibaro.sensor",
      "enabled": true,
      "visible": true,
      "isPlugin": true,
      "parentId": 4,
      "remoteGatewayId": 0,
      "viewXml": false,
      "configXml": false,
      "interfaces": [
        "fibaroAlarm",
        "fibaroAlarmArm",
        "fibaroBreach",
        "zwave_mock"
      ],
      "properties": {
        "alarmDelay": "0",
        "alarmExclude": "false",
        "alarmTimeTimestamp": "0",
        "armConditions": "{\"auto\":false,\"devices\":[{\"id\":12,\"propertyName\":\"value\",\"propertyValue\":\"0\"}],\"time\":0}",
        "armConfig": "0",
        "armDelay": "0",
        "armError": "{}",
        "armTimeTimestamp": "0",
        "armed": "false",
        "configured": true,
        "dead": "false",
        "deviceControlType": "0",
        "deviceIcon": "21",
        "emailNotificationID": "0",
        "emailNotificationType": "0",
        "endPointId": "0",
        "fibaroAlarm": "false",
        "lastBreached": "1543917992",
        "liliOffCommand": "",
        "liliOnCommand": "",
        "linkedDevices": "[12]",
        "log": "",
        "logTemp": "",
        "manufacturer": "",
        "markAsDead": "true",
        "model": "",
        "nodeId": "0",
        "parameters": [],
        "parametersTemplate": "0",
        "pollingTimeSec": 0,
        "productInfo": "",
        "pushNotificationID": "0",
        "pushNotificationType": "0",
        "remoteGatewayId": "0",
        "saveLogs": "true",
        "serialNumber": "",
        "smsNotificationID": "0",
        "smsNotificationType": "0",
        "useTemplate": "true",
        "userDescription": "",
        "value": "false",
        "zwaveVersion": ""
      },
      "actions": {
        "forceArm": 0,
        "meetArmConditions": 0,
        "reconfigure": 0,
        "setArmed": 1
      },
      "created": 1539681225,
      "modified": 1539681225,
      "sortOrder": 29
    },
    {
      "id": 13,
      "name": "windowSensor_8",
      "roomID": 0,
      "type": "com.fibaro.windowSensor",
      "baseType": "com.fibaro.doorWindowSensor",
      "enabled": true,
      "visible": true,
      "isPlugin": true,
      "parentId": 4,
      "remoteGatewayId": 0,
      "viewXml": false,
      "configXml": false,
      "interfaces": [
        "fibaroAlarm",
        "fibaroAlarmArm",
        "fibaroBreach",
        "zwave_mock"
      ],
      "properties": {
        "alarmDelay": "0",
        "alarmExclude": "false",
        "alarmTimeTimestamp": "0",
        "armConditions": "{\"auto\":false,\"devices\":[{\"id\":13,\"propertyName\":\"value\",\"propertyValue\":\"0\"}],\"time\":0}",
        "armConfig": "0",
        "armDelay": "0",
        "armError": "{}",
        "armTimeTimestamp": "0",
        "armed": "false",
        "configured": true,
        "dead": "false",
        "deviceControlType": "0",
        "deviceIcon": "14",
        "emailNotificationID": "0",
        "emailNotificationType": "0",
        "endPointId": "0",
        "fibaroAlarm": "false",
        "lastBreached": "0",
        "liliOffCommand": "",
        "liliOnCommand": "",
        "linkedDevices": "[13]",
        "log": "",
        "logTemp": "",
        "manufacturer": "",
        "markAsDead": "true",
        "model": "",
        "nodeId": "0",
        "parameters": [],
        "parametersTemplate": "0",
        "pollingTimeSec": 0,
        "productInfo": "",
        "pushNotificationID": "0",
        "pushNotificationType": "0",
        "remoteGatewayId": "0",
        "saveLogs": "true",
        "serialNumber": "",
        "smsNotificationID": "0",
        "smsNotificationType": "0",
        "useTemplate": "true",
        "userDescription": "",
        "value": "false",
        "zwaveVersion": ""
      },
      "actions": {
        "forceArm": 0,
        "meetArmConditions": 0,
        "reconfigure": 0,
        "setArmed": 1
      },
      "created": 1539681225,
      "modified": 1539681225,
      "sortOrder": 5
    },
    {
      "id": 14,
      "name": "windowSensor_9",
      "roomID": 0,
      "type": "com.fibaro.windowSensor",
      "baseType": "com.fibaro.doorWindowSensor",
      "enabled": true,
      "visible": true,
      "isPlugin": true,
      "parentId": 4,
      "remoteGatewayId": 0,
      "viewXml": false,
      "configXml": false,
      "interfaces": [
        "fibaroAlarm",
        "fibaroAlarmArm",
        "fibaroBreach",
        "zwave_mock"
      ],
      "properties": {
        "alarmDelay": "0",
        "alarmExclude": "false",
        "alarmTimeTimestamp": "0",
        "armConditions": "{\"auto\":false,\"devices\":[{\"id\":14,\"propertyName\":\"value\",\"propertyValue\":\"0\"}],\"time\":0}",
        "armConfig": "0",
        "armDelay": "0",
        "armError": "{}",
        "armTimeTimestamp": "0",
        "armed": "false",
        "configured": true,
        "dead": "false",
        "deviceControlType": "0",
        "deviceIcon": "14",
        "emailNotificationID": "0",
        "emailNotificationType": "0",
        "endPointId": "0",
        "fibaroAlarm": "false",
        "lastBreached": "0",
        "liliOffCommand": "",
        "liliOnCommand": "",
        "linkedDevices": "[14]",
        "log": "",
        "logTemp": "",
        "manufacturer": "",
        "markAsDead": "true",
        "model": "",
        "nodeId": "0",
        "parameters": [],
        "parametersTemplate": "0",
        "pollingTimeSec": 0,
        "productInfo": "",
        "pushNotificationID": "0",
        "pushNotificationType": "0",
        "remoteGatewayId": "0",
        "saveLogs": "true",
        "serialNumber": "",
        "smsNotificationID": "0",
        "smsNotificationType": "0",
        "useTemplate": "true",
        "userDescription": "",
        "value": "false",
        "zwaveVersion": ""
      },
      "actions": {
        "forceArm": 0,
        "meetArmConditions": 0,
        "reconfigure": 0,
        "setArmed": 1
      },
      "created": 1539681225,
      "modified": 1539681225,
      "sortOrder": 6
    },
    {
      "id": 15,
      "name": "windowSensor_10",
      "roomID": 0,
      "type": "com.fibaro.windowSensor",
      "baseType": "com.fibaro.doorWindowSensor",
      "enabled": true,
      "visible": true,
      "isPlugin": true,
      "parentId": 4,
      "remoteGatewayId": 0,
      "viewXml": false,
      "configXml": false,
      "interfaces": [
        "fibaroAlarm",
        "fibaroAlarmArm",
        "fibaroBreach",
        "zwave_mock"
      ],
      "properties": {
        "alarmDelay": "0",
        "alarmExclude": "false",
        "alarmTimeTimestamp": "0",
        "armConditions": "{\"auto\":false,\"devices\":[{\"id\":15,\"propertyName\":\"value\",\"propertyValue\":\"0\"}],\"time\":0}",
        "armConfig": "0",
        "armDelay": "0",
        "armError": "{}",
        "armTimeTimestamp": "0",
        "armed": "false",
        "configured": true,
        "dead": "false",
        "deviceControlType": "0",
        "deviceIcon": "14",
        "emailNotificationID": "0",
        "emailNotificationType": "0",
        "endPointId": "0",
        "fibaroAlarm": "false",
        "lastBreached": "0",
        "liliOffCommand": "",
        "liliOnCommand": "",
        "linkedDevices": "[15]",
        "log": "",
        "logTemp": "",
        "manufacturer": "",
        "markAsDead": "true",
        "model": "",
        "nodeId": "0",
        "parameters": [],
        "parametersTemplate": "0",
        "pollingTimeSec": 0,
        "productInfo": "",
        "pushNotificationID": "0",
        "pushNotificationType": "0",
        "remoteGatewayId": "0",
        "saveLogs": "true",
        "serialNumber": "",
        "smsNotificationID": "0",
        "smsNotificationType": "0",
        "useTemplate": "true",
        "userDescription": "",
        "value": "false",
        "zwaveVersion": ""
      },
      "actions": {
        "forceArm": 0,
        "meetArmConditions": 0,
        "reconfigure": 0,
        "setArmed": 1
      },
      "created": 1539681225,
      "modified": 1539681225,
      "sortOrder": 7
    },
    {
      "id": 16,
      "name": "windowSensor_11",
      "roomID": 6,
      "type": "com.fibaro.windowSensor",
      "baseType": "com.fibaro.doorWindowSensor",
      "enabled": true,
      "visible": true,
      "isPlugin": true,
      "parentId": 4,
      "remoteGatewayId": 0,
      "viewXml": false,
      "configXml": false,
      "interfaces": [
        "fibaroAlarm",
        "fibaroAlarmArm",
        "fibaroBreach",
        "zwave_mock"
      ],
      "properties": {
        "alarmDelay": "0",
        "alarmExclude": "false",
        "alarmTimeTimestamp": "0",
        "armConditions": "{\"auto\":false,\"devices\":[{\"id\":16,\"propertyName\":\"value\",\"propertyValue\":\"0\"}],\"time\":0}",
        "armConfig": "0",
        "armDelay": "0",
        "armError": "{}",
        "armTimeTimestamp": "0",
        "armed": "false",
        "configured": true,
        "dead": "false",
        "deviceControlType": "0",
        "deviceIcon": "14",
        "emailNotificationID": "0",
        "emailNotificationType": "0",
        "endPointId": "0",
        "fibaroAlarm": "false",
        "lastBreached": "0",
        "liliOffCommand": "",
        "liliOnCommand": "",
        "linkedDevices": "[16]",
        "log": "",
        "logTemp": "",
        "manufacturer": "",
        "markAsDead": "true",
        "model": "",
        "nodeId": "0",
        "parameters": [],
        "parametersTemplate": "0",
        "pollingTimeSec": 0,
        "productInfo": "",
        "pushNotificationID": "0",
        "pushNotificationType": "0",
        "remoteGatewayId": "0",
        "saveLogs": "true",
        "serialNumber": "",
        "smsNotificationID": "0",
        "smsNotificationType": "0",
        "useTemplate": "true",
        "userDescription": "",
        "value": "false",
        "zwaveVersion": ""
      },
      "actions": {
        "forceArm": 0,
        "meetArmConditions": 0,
        "reconfigure": 0,
        "setArmed": 1
      },
      "created": 1539681225,
      "modified": 1539681225,
      "sortOrder": 21
    },
    {
      "id": 17,
      "name": "windowSensor_12",
      "roomID": 5,
      "type": "com.fibaro.windowSensor",
      "baseType": "com.fibaro.doorWindowSensor",
      "enabled": true,
      "visible": true,
      "isPlugin": true,
      "parentId": 4,
      "remoteGatewayId": 0,
      "viewXml": false,
      "configXml": false,
      "interfaces": [
        "fibaroAlarm",
        "fibaroAlarmArm",
        "fibaroBreach",
        "zwave_mock"
      ],
      "properties": {
        "alarmDelay": "0",
        "alarmExclude": "false",
        "alarmTimeTimestamp": "0",
        "armConditions": "{\"auto\":false,\"devices\":[{\"id\":17,\"propertyName\":\"value\",\"propertyValue\":\"0\"}],\"time\":0}",
        "armConfig": "0",
        "armDelay": "0",
        "armError": "{}",
        "armTimeTimestamp": "0",
        "armed": "false",
        "configured": true,
        "dead": "false",
        "deviceControlType": "0",
        "deviceIcon": "14",
        "emailNotificationID": "0",
        "emailNotificationType": "0",
        "endPointId": "0",
        "fibaroAlarm": "false",
        "lastBreached": "0",
        "liliOffCommand": "",
        "liliOnCommand": "",
        "linkedDevices": "[17]",
        "log": "",
        "logTemp": "",
        "manufacturer": "",
        "markAsDead": "true",
        "model": "",
        "nodeId": "0",
        "parameters": [],
        "parametersTemplate": "0",
        "pollingTimeSec": 0,
        "productInfo": "",
        "pushNotificationID": "0",
        "pushNotificationType": "0",
        "remoteGatewayId": "0",
        "saveLogs": "true",
        "serialNumber": "",
        "smsNotificationID": "0",
        "smsNotificationType": "0",
        "useTemplate": "true",
        "userDescription": "",
        "value": "false",
        "zwaveVersion": ""
      },
      "actions": {
        "forceArm": 0,
        "meetArmConditions": 0,
        "reconfigure": 0,
        "setArmed": 1
      },
      "created": 1539681225,
      "modified": 1539681225,
      "sortOrder": 22
    },
    {
      "id": 18,
      "name": "smokeSensor_13",
      "roomID": 6,
      "type": "com.fibaro.smokeSensor",
      "baseType": "com.fibaro.gasDetector",
      "enabled": true,
      "visible": true,
      "isPlugin": true,
      "parentId": 4,
      "remoteGatewayId": 0,
      "viewXml": false,
      "configXml": false,
      "interfaces": [
        "fibaroBreach",
        "zwave_mock"
      ],
      "properties": {
        "configured": true,
        "dead": "false",
        "deviceControlType": "0",
        "deviceIcon": "46",
        "emailNotificationID": "0",
        "emailNotificationType": "0",
        "endPointId": "0",
        "lastBreached": "0",
        "liliOffCommand": "",
        "liliOnCommand": "",
        "linkedDevices": "[18]",
        "log": "",
        "logTemp": "",
        "manufacturer": "",
        "markAsDead": "true",
        "model": "",
        "nodeId": "0",
        "parameters": [],
        "parametersTemplate": "0",
        "pollingTimeSec": 0,
        "productInfo": "",
        "pushNotificationID": "0",
        "pushNotificationType": "0",
        "remoteGatewayId": "0",
        "saveLogs": "true",
        "serialNumber": "",
        "smsNotificationID": "0",
        "smsNotificationType": "0",
        "useTemplate": "true",
        "userDescription": "",
        "value": "false",
        "zwaveVersion": ""
      },
      "actions": {
        "forceArm": 0,
        "meetArmConditions": 0,
        "reconfigure": 0,
        "setArmed": 1
      },
      "created": 1539681225,
      "modified": 1539681225,
      "sortOrder": 15
    },
    {
      "id": 19,
      "name": "smokeSensor_14",
      "roomID": 4,
      "type": "com.fibaro.smokeSensor",
      "baseType": "com.fibaro.gasDetector",
      "enabled": true,
      "visible": true,
      "isPlugin": true,
      "parentId": 4,
      "remoteGatewayId": 0,
      "viewXml": false,
      "configXml": false,
      "interfaces": [
        "fibaroBreach",
        "zwave_mock"
      ],
      "properties": {
        "configured": true,
        "dead": "false",
        "deviceControlType": "0",
        "deviceIcon": "46",
        "emailNotificationID": "0",
        "emailNotificationType": "0",
        "endPointId": "0",
        "lastBreached": "0",
        "liliOffCommand": "",
        "liliOnCommand": "",
        "linkedDevices": "[19]",
        "log": "",
        "logTemp": "",
        "manufacturer": "",
        "markAsDead": "true",
        "model": "",
        "nodeId": "0",
        "parameters": [],
        "parametersTemplate": "0",
        "pollingTimeSec": 0,
        "productInfo": "",
        "pushNotificationID": "0",
        "pushNotificationType": "0",
        "remoteGatewayId": "0",
        "saveLogs": "true",
        "serialNumber": "",
        "smsNotificationID": "0",
        "smsNotificationType": "0",
        "useTemplate": "true",
        "userDescription": "",
        "value": "false",
        "zwaveVersion": ""
      },
      "actions": {
        "forceArm": 0,
        "meetArmConditions": 0,
        "reconfigure": 0,
        "setArmed": 1
      },
      "created": 1539681225,
      "modified": 1539681225,
      "sortOrder": 16
    },
    {
      "id": 20,
      "name": "multilevelSensor_15",
      "roomID": 0,
      "type": "com.fibaro.multilevelSensor",
      "baseType": "com.fibaro.sensor",
      "enabled": true,
      "visible": true,
      "isPlugin": true,
      "parentId": 4,
      "remoteGatewayId": 0,
      "viewXml": false,
      "configXml": false,
      "interfaces": [
        "zwave_mock"
      ],
      "properties": {
        "configured": true,
        "dead": "false",
        "deviceControlType": "0",
        "deviceIcon": "47",
        "emailNotificationID": "0",
        "emailNotificationType": "0",
        "endPointId": "0",
        "liliOffCommand": "",
        "liliOnCommand": "",
        "linkedDevices": "[20]",
        "log": "",
        "logTemp": "",
        "manufacturer": "",
        "markAsDead": "true",
        "model": "",
        "nodeId": "0",
        "parameters": [],
        "parametersTemplate": "0",
        "pollingTimeSec": 0,
        "productInfo": "",
        "pushNotificationID": "0",
        "pushNotificationType": "0",
        "remoteGatewayId": "0",
        "saveLogs": "true",
        "serialNumber": "",
        "smsNotificationID": "0",
        "smsNotificationType": "0",
        "unit": "",
        "useTemplate": "true",
        "userDescription": "",
        "value": "0.00",
        "zwaveVersion": ""
      },
      "actions": {
        "reconfigure": 0
      },
      "created": 1539681225,
      "modified": 1539681225,
      "sortOrder": 8
    },
    {
      "id": 21,
      "name": "multilevelSensor_16",
      "roomID": 0,
      "type": "com.fibaro.multilevelSensor",
      "baseType": "com.fibaro.sensor",
      "enabled": true,
      "visible": true,
      "isPlugin": true,
      "parentId": 4,
      "remoteGatewayId": 0,
      "viewXml": false,
      "configXml": false,
      "interfaces": [
        "zwave_mock"
      ],
      "properties": {
        "configured": true,
        "dead": "false",
        "deviceControlType": "0",
        "deviceIcon": "47",
        "emailNotificationID": "0",
        "emailNotificationType": "0",
        "endPointId": "0",
        "liliOffCommand": "",
        "liliOnCommand": "",
        "linkedDevices": "[21]",
        "log": "",
        "logTemp": "",
        "manufacturer": "",
        "markAsDead": "true",
        "model": "",
        "nodeId": "0",
        "parameters": [],
        "parametersTemplate": "0",
        "pollingTimeSec": 0,
        "productInfo": "",
        "pushNotificationID": "0",
        "pushNotificationType": "0",
        "remoteGatewayId": "0",
        "saveLogs": "true",
        "serialNumber": "",
        "smsNotificationID": "0",
        "smsNotificationType": "0",
        "unit": "",
        "useTemplate": "true",
        "userDescription": "",
        "value": "0.00",
        "zwaveVersion": ""
      },
      "actions": {
        "reconfigure": 0
      },
      "created": 1539681225,
      "modified": 1539681225,
      "sortOrder": 9
    },
    {
      "id": 22,
      "name": "multilevelSensor_17",
      "roomID": 0,
      "type": "com.fibaro.multilevelSensor",
      "baseType": "com.fibaro.sensor",
      "enabled": true,
      "visible": true,
      "isPlugin": true,
      "parentId": 4,
      "remoteGatewayId": 0,
      "viewXml": false,
      "configXml": false,
      "interfaces": [
        "zwave_mock"
      ],
      "properties": {
        "configured": true,
        "dead": "false",
        "deviceControlType": "0",
        "deviceIcon": "47",
        "emailNotificationID": "0",
        "emailNotificationType": "0",
        "endPointId": "0",
        "liliOffCommand": "",
        "liliOnCommand": "",
        "linkedDevices": "[22]",
        "log": "",
        "logTemp": "",
        "manufacturer": "",
        "markAsDead": "true",
        "model": "",
        "nodeId": "0",
        "parameters": [],
        "parametersTemplate": "0",
        "pollingTimeSec": 0,
        "productInfo": "",
        "pushNotificationID": "0",
        "pushNotificationType": "0",
        "remoteGatewayId": "0",
        "saveLogs": "true",
        "serialNumber": "",
        "smsNotificationID": "0",
        "smsNotificationType": "0",
        "unit": "",
        "useTemplate": "true",
        "userDescription": "",
        "value": "0.00",
        "zwaveVersion": ""
      },
      "actions": {
        "reconfigure": 0
      },
      "created": 1539681225,
      "modified": 1539681225,
      "sortOrder": 11
    },
    {
      "id": 23,
      "name": "temperatureSensor_18",
      "roomID": 7,
      "type": "com.fibaro.temperatureSensor",
      "baseType": "com.fibaro.multilevelSensor",
      "enabled": true,
      "visible": true,
      "isPlugin": true,
      "parentId": 4,
      "remoteGatewayId": 0,
      "viewXml": false,
      "configXml": false,
      "interfaces": [
        "zwave_mock"
      ],
      "properties": {
        "configured": true,
        "dead": "false",
        "deviceControlType": "0",
        "deviceIcon": "30",
        "emailNotificationID": "0",
        "emailNotificationType": "0",
        "endPointId": "0",
        "liliOffCommand": "",
        "liliOnCommand": "",
        "linkedDevices": "[23]",
        "log": "",
        "logTemp": "",
        "manufacturer": "",
        "markAsDead": "true",
        "model": "",
        "nodeId": "0",
        "offset": "0.00",
        "parameters": [],
        "parametersTemplate": "0",
        "pollingTimeSec": 0,
        "productInfo": "",
        "pushNotificationID": "0",
        "pushNotificationType": "0",
        "remoteGatewayId": "0",
        "saveLogs": "true",
        "serialNumber": "",
        "showFireAlarm": "true",
        "showFreezeAlarm": "false",
        "smsNotificationID": "0",
        "smsNotificationType": "0",
        "unit": "C",
        "useTemplate": "true",
        "userDescription": "",
        "value": "0.00",
        "zwaveVersion": ""
      },
      "actions": {
        "reconfigure": 0
      },
      "created": 1539681225,
      "modified": 1539681225,
      "sortOrder": 17
    },
    {
      "id": 24,
      "name": "temperatureSensor_19",
      "roomID": 4,
      "type": "com.fibaro.temperatureSensor",
      "baseType": "com.fibaro.multilevelSensor",
      "enabled": true,
      "visible": true,
      "isPlugin": true,
      "parentId": 4,
      "remoteGatewayId": 0,
      "viewXml": false,
      "configXml": false,
      "interfaces": [
        "zwave_mock"
      ],
      "properties": {
        "configured": true,
        "dead": "false",
        "deviceControlType": "0",
        "deviceIcon": "30",
        "emailNotificationID": "0",
        "emailNotificationType": "0",
        "endPointId": "0",
        "liliOffCommand": "",
        "liliOnCommand": "",
        "linkedDevices": "[24]",
        "log": "",
        "logTemp": "",
        "manufacturer": "",
        "markAsDead": "true",
        "model": "",
        "nodeId": "0",
        "offset": "0.00",
        "parameters": [],
        "parametersTemplate": "0",
        "pollingTimeSec": 0,
        "productInfo": "",
        "pushNotificationID": "0",
        "pushNotificationType": "0",
        "remoteGatewayId": "0",
        "saveLogs": "true",
        "serialNumber": "",
        "showFireAlarm": "true",
        "showFreezeAlarm": "false",
        "smsNotificationID": "0",
        "smsNotificationType": "0",
        "unit": "C",
        "useTemplate": "true",
        "userDescription": "",
        "value": "21.18",
        "zwaveVersion": ""
      },
      "actions": {
        "reconfigure": 0
      },
      "created": 1539681225,
      "modified": 1539681225,
      "sortOrder": 20
    },
    {
      "id": 25,
      "name": "temperatureSensor_20",
      "roomID": 6,
      "type": "com.fibaro.temperatureSensor",
      "baseType": "com.fibaro.multilevelSensor",
      "enabled": true,
      "visible": true,
      "isPlugin": true,
      "parentId": 4,
      "remoteGatewayId": 0,
      "viewXml": false,
      "configXml": false,
      "interfaces": [
        "zwave_mock"
      ],
      "properties": {
        "configured": true,
        "dead": "false",
        "deviceControlType": "0",
        "deviceIcon": "30",
        "emailNotificationID": "0",
        "emailNotificationType": "0",
        "endPointId": "0",
        "liliOffCommand": "",
        "liliOnCommand": "",
        "linkedDevices": "[25]",
        "log": "",
        "logTemp": "",
        "manufacturer": "",
        "markAsDead": "true",
        "model": "",
        "nodeId": "0",
        "offset": "0.00",
        "parameters": [],
        "parametersTemplate": "0",
        "pollingTimeSec": 0,
        "productInfo": "",
        "pushNotificationID": "0",
        "pushNotificationType": "0",
        "remoteGatewayId": "0",
        "saveLogs": "true",
        "serialNumber": "",
        "showFireAlarm": "true",
        "showFreezeAlarm": "false",
        "smsNotificationID": "0",
        "smsNotificationType": "0",
        "unit": "C",
        "useTemplate": "true",
        "userDescription": "",
        "value": "16.53",
        "zwaveVersion": ""
      },
      "actions": {
        "reconfigure": 0
      },
      "created": 1539681225,
      "modified": 1539681225,
      "sortOrder": 19
    },
    {
      "id": 26,
      "name": "FGSS001_21",
      "roomID": 8,
      "type": "com.fibaro.FGSS001",
      "baseType": "com.fibaro.smokeSensor",
      "enabled": true,
      "visible": true,
      "isPlugin": true,
      "parentId": 4,
      "remoteGatewayId": 0,
      "viewXml": false,
      "configXml": false,
      "interfaces": [
        "fibaroBreach",
        "zwave_mock"
      ],
      "properties": {
        "configured": true,
        "dead": "false",
        "deviceControlType": "0",
        "deviceIcon": "69",
        "emailNotificationID": "0",
        "emailNotificationType": "0",
        "endPointId": "0",
        "lastBreached": "0",
        "liliOffCommand": "",
        "liliOnCommand": "",
        "linkedDevices": "[26]",
        "log": "",
        "logTemp": "",
        "manufacturer": "",
        "markAsDead": "true",
        "model": "",
        "nodeId": "0",
        "parameters": [],
        "parametersTemplate": "0",
        "pollingTimeSec": 0,
        "productInfo": "",
        "pushNotificationID": "0",
        "pushNotificationType": "0",
        "remoteGatewayId": "0",
        "saveLogs": "true",
        "serialNumber": "",
        "smokeSensitivityMode": "0",
        "smsNotificationID": "0",
        "smsNotificationType": "0",
        "useTemplate": "true",
        "userDescription": "",
        "value": "false",
        "zwaveVersion": ""
      },
      "actions": {
        "forceArm": 0,
        "meetArmConditions": 0,
        "reconfigure": 0,
        "setArmed": 1
      },
      "created": 1539681226,
      "modified": 1539681226,
      "sortOrder": 31
    },
    {
      "id": 27,
      "name": "FGSS001_22",
      "roomID": 6,
      "type": "com.fibaro.FGSS001",
      "baseType": "com.fibaro.smokeSensor",
      "enabled": true,
      "visible": true,
      "isPlugin": true,
      "parentId": 4,
      "remoteGatewayId": 0,
      "viewXml": false,
      "configXml": false,
      "interfaces": [
        "fibaroBreach",
        "zwave_mock"
      ],
      "properties": {
        "configured": true,
        "dead": "false",
        "deviceControlType": "0",
        "deviceIcon": "69",
        "emailNotificationID": "0",
        "emailNotificationType": "0",
        "endPointId": "0",
        "lastBreached": "0",
        "liliOffCommand": "",
        "liliOnCommand": "",
        "linkedDevices": "[27]",
        "log": "",
        "logTemp": "",
        "manufacturer": "",
        "markAsDead": "true",
        "model": "",
        "nodeId": "0",
        "parameters": [],
        "parametersTemplate": "0",
        "pollingTimeSec": 0,
        "productInfo": "",
        "pushNotificationID": "0",
        "pushNotificationType": "0",
        "remoteGatewayId": "0",
        "saveLogs": "true",
        "serialNumber": "",
        "smokeSensitivityMode": "0",
        "smsNotificationID": "0",
        "smsNotificationType": "0",
        "useTemplate": "true",
        "userDescription": "",
        "value": "false",
        "zwaveVersion": ""
      },
      "actions": {
        "forceArm": 0,
        "meetArmConditions": 0,
        "reconfigure": 0,
        "setArmed": 1
      },
      "created": 1539681226,
      "modified": 1539681226,
      "sortOrder": 32
    },
    {
      "id": 28,
      "name": "lightSensor_23",
      "roomID": 6,
      "type": "com.fibaro.lightSensor",
      "baseType": "com.fibaro.multilevelSensor",
      "enabled": true,
      "visible": true,
      "isPlugin": true,
      "parentId": 4,
      "remoteGatewayId": 0,
      "viewXml": false,
      "configXml": false,
      "interfaces": [
        "zwave_mock"
      ],
      "properties": {
        "configured": true,
        "dead": "false",
        "deviceControlType": "0",
        "deviceIcon": "32",
        "emailNotificationID": "0",
        "emailNotificationType": "0",
        "endPointId": "0",
        "liliOffCommand": "",
        "liliOnCommand": "",
        "linkedDevices": "[28]",
        "log": "",
        "logTemp": "",
        "manufacturer": "",
        "markAsDead": "true",
        "model": "",
        "nodeId": "0",
        "parameters": [],
        "parametersTemplate": "0",
        "pollingTimeSec": 0,
        "productInfo": "",
        "pushNotificationID": "0",
        "pushNotificationType": "0",
        "remoteGatewayId": "0",
        "saveLogs": "true",
        "serialNumber": "",
        "smsNotificationID": "0",
        "smsNotificationType": "0",
        "unit": "",
        "useTemplate": "true",
        "userDescription": "",
        "value": "0.00",
        "zwaveVersion": ""
      },
      "actions": {
        "reconfigure": 0
      },
      "created": 1539681226,
      "modified": 1539681226,
      "sortOrder": 28
    },
    {
      "id": 29,
      "name": "lightSensor_24",
      "roomID": 0,
      "type": "com.fibaro.lightSensor",
      "baseType": "com.fibaro.multilevelSensor",
      "enabled": true,
      "visible": true,
      "isPlugin": true,
      "parentId": 4,
      "remoteGatewayId": 0,
      "viewXml": false,
      "configXml": false,
      "interfaces": [
        "zwave_mock"
      ],
      "properties": {
        "configured": true,
        "dead": "false",
        "deviceControlType": "0",
        "deviceIcon": "32",
        "emailNotificationID": "0",
        "emailNotificationType": "0",
        "endPointId": "0",
        "liliOffCommand": "",
        "liliOnCommand": "",
        "linkedDevices": "[29]",
        "log": "",
        "logTemp": "",
        "manufacturer": "",
        "markAsDead": "true",
        "model": "",
        "nodeId": "0",
        "parameters": [],
        "parametersTemplate": "0",
        "pollingTimeSec": 0,
        "productInfo": "",
        "pushNotificationID": "0",
        "pushNotificationType": "0",
        "remoteGatewayId": "0",
        "saveLogs": "true",
        "serialNumber": "",
        "smsNotificationID": "0",
        "smsNotificationType": "0",
        "unit": "",
        "useTemplate": "true",
        "userDescription": "",
        "value": "0.00",
        "zwaveVersion": ""
      },
      "actions": {
        "reconfigure": 0
      },
      "created": 1539681226,
      "modified": 1539681226,
      "sortOrder": 30
    },
    {
      "id": 30,
      "name": "lightSensor_25",
      "roomID": 0,
      "type": "com.fibaro.lightSensor",
      "baseType": "com.fibaro.multilevelSensor",
      "enabled": true,
      "visible": true,
      "isPlugin": true,
      "parentId": 4,
      "remoteGatewayId": 0,
      "viewXml": false,
      "configXml": false,
      "interfaces": [
        "zwave_mock"
      ],
      "properties": {
        "configured": true,
        "dead": "false",
        "deviceControlType": "0",
        "deviceIcon": "32",
        "emailNotificationID": "0",
        "emailNotificationType": "0",
        "endPointId": "0",
        "liliOffCommand": "",
        "liliOnCommand": "",
        "linkedDevices": "[30]",
        "log": "",
        "logTemp": "",
        "manufacturer": "",
        "markAsDead": "true",
        "model": "",
        "nodeId": "0",
        "parameters": [],
        "parametersTemplate": "0",
        "pollingTimeSec": 0,
        "productInfo": "",
        "pushNotificationID": "0",
        "pushNotificationType": "0",
        "remoteGatewayId": "0",
        "saveLogs": "true",
        "serialNumber": "",
        "smsNotificationID": "0",
        "smsNotificationType": "0",
        "unit": "",
        "useTemplate": "true",
        "userDescription": "",
        "value": "0.00",
        "zwaveVersion": ""
      },
      "actions": {
        "reconfigure": 0
      },
      "created": 1539681226,
      "modified": 1539681226,
      "sortOrder": 10
    }
  ]
}
